{
    "KPlugin": {
        "Authors": [
            {
                "Email": "ltinkl@redhat.com",
                "Name": "Lukáš Tinkl",
                "Name[ar]": "Lukáš Tinkl",
                "Name[az]": "Lukáš Tinkl",
                "Name[ca@valencia]": "Lukáš Tinkl",
                "Name[ca]": "Lukáš Tinkl",
                "Name[en_GB]": "Lukáš Tinkl",
                "Name[es]": "Lukáš Tinkl",
                "Name[eu]": "Lukáš Tinkl",
                "Name[fi]": "Lukáš Tinkl",
                "Name[fr]": "Lukáš Tinkl",
                "Name[hu]": "Lukáš Tinkl",
                "Name[ia]": "Lukáš Tinkl",
                "Name[it]": "Lukáš Tinkl",
                "Name[ko]": "Lukáš Tinkl",
                "Name[nl]": "Lukáš Tinkl",
                "Name[nn]": "Lukáš Tinkl",
                "Name[pl]": "Lukáš Tinkl",
                "Name[pt]": "Lukáš Tinkl",
                "Name[pt_BR]": "Lukáš Tinkl",
                "Name[ro]": "Lukáš Tinkl",
                "Name[ru]": "Lukáš Tinkl",
                "Name[sl]": "Lukáš Tinkl",
                "Name[sv]": "Lukáš Tinkl",
                "Name[tr]": "Lukáš Tinkl",
                "Name[uk]": "Lukáš Tinkl",
                "Name[x-test]": "xxLukáš Tinklxx",
                "Name[zh_CN]": "Lukáš Tinkl"
            }
        ],
        "Category": "VPNService",
        "Description": "IPsec, IKEv1, IKEv2 based VPN",
        "Description[ar]": "شبكات تعتمد على IPsec و IKEv1 و IKEv2",
        "Description[az]": "IPsec, IKEv1, IKEv2 əsaslı VPN",
        "Description[ca@valencia]": "VPN basada en IKEv1, IKEv2 sobre IPsec",
        "Description[ca]": "VPN basada en IKEv1, IKEv2 sobre IPsec",
        "Description[en_GB]": "IPsec, IKEv1, IKEv2 based VPN",
        "Description[es]": "VPN basada en IPsec, IKEv1 e IKEv2",
        "Description[eu]": "IPsec, IKEv1, IKEv2 oinarridun VPN",
        "Description[fi]": "IPsec-, IKEv1-, IKEv2-pohjainen VPN",
        "Description[fr]": "IPsec, IKEv1, IKEv2 reposant sur un VPN",
        "Description[hu]": "IPsec-, IKEv1-, IKEv2-alapú VPN",
        "Description[ia]": "VPN basate sur IPsec, IKEv1, IKEv2",
        "Description[it]": "VPN basata su IPsec, IKEv1, IKEv2",
        "Description[ko]": "IPSec, IKEv1, IKEv2 기반 VPN",
        "Description[nl]": "Op IPsec, IKEv1, IKEv2 gebaseerde VPN",
        "Description[nn]": "IPsec-/IKEv1-/IKEv2-basert VPN",
        "Description[pl]": "VPN oparty na IPsec, IKEv1, IKEv2",
        "Description[pt]": "VPN baseada em IPsec, IKEv1, IKEv2",
        "Description[pt_BR]": "VPN baseada em IPsec, IKEv1, IKEv2",
        "Description[ru]": "VPN на основе IPsec, IKEv1, IKEv2",
        "Description[sl]": "Na IPsec, IKEv1, IKEv2 temelječ VPN",
        "Description[sv]": "IPsec, IKEv1, IKEv2-baserad VPN",
        "Description[tr]": "IPsec, IKEv1, IKEv2 tabanlı VPN",
        "Description[uk]": "VPN на основі IPsec, IKEv1, IKEv2",
        "Description[x-test]": "xxIPsec, IKEv1, IKEv2 based VPNxx",
        "Description[zh_CN]": "基于 IPsec、IKEv1、IKEv2 的 VPN",
        "EnabledByDefault": false,
        "Icon": "",
        "Id": "plasmanetworkmanagement_strongswanui",
        "License": "GPL",
        "Name": "IPsec based VPN (strongswan)",
        "Name[ar]": "شبكة خاصة افتراضية بالاعتماد على IPsec بواسطة (strongswan)",
        "Name[ast]": "VPN basada n'IPsec (strongswan)",
        "Name[az]": "IPsec əsaslı VPN (strongswan)",
        "Name[ca@valencia]": "VPN basada en IPsec (strongswan)",
        "Name[ca]": "VPN basada en IPsec (strongswan)",
        "Name[cs]": "VPN založena na IPsec (strongswan)",
        "Name[da]": "IPsec-baseret VPN (strongswan)",
        "Name[de]": "VPN basierend auf IPsec (strongswan)",
        "Name[el]": "VPN βασισμένο σε IPsec (strongswan)",
        "Name[en_GB]": "IPsec based VPN (strongswan)",
        "Name[es]": "VPN basada en IPsec (strongswan)",
        "Name[et]": "IPseci põhine VPN (strongswan)",
        "Name[eu]": "IPsec oinarridun VPN (strongswan)",
        "Name[fi]": "IPsec-pohjainen VPN (strongswan)",
        "Name[fr]": "VPN utilisant IPsec (strongswan)",
        "Name[gl]": "VPN baseada en IPsec (strongswan)",
        "Name[he]": "‏ VPN מבוסס IPsec‏ (strongswan)",
        "Name[hsb]": "na IPsec bazowacy VPN (strongswan)",
        "Name[hu]": "IPsec-alapú VPN (strongswan)",
        "Name[ia]": "VPN basate sur IPsec (strongswan)",
        "Name[id]": "VPN berbasis IPsec (strongswan)",
        "Name[it]": "VPN basata su IPsec (strongswan)",
        "Name[ja]": "IPsec ベースの VPN (strongswan)",
        "Name[ko]": "IPSec 기반 VPN(strongswan)",
        "Name[lt]": "IPsec pagrįstas VPN (strongswan)",
        "Name[nl]": "Op IPsec gebaseerde VPN (strongswan)",
        "Name[nn]": "IPsec-basert VPN (strongswan)",
        "Name[pa]": "IPsec ਅਧਾਰਿਤ VPN (strongswan)",
        "Name[pl]": "VPN oparty na IPsec (strongswan)",
        "Name[pt]": "VPN baseada em IPsec (strongswan)",
        "Name[pt_BR]": "VPN baseada em IPsec (strongswan)",
        "Name[ru]": "VPN на основе IPsec (strongswan)",
        "Name[sk]": "VPN založená na IPsec (strongswan)",
        "Name[sl]": "Na IPsec temelječ VPN (strongswan)",
        "Name[sr@ijekavian]": "ВПН на основу ИПсека (Стронгсвон)",
        "Name[sr@ijekavianlatin]": "VPN na osnovu IPseca (strongSwan)",
        "Name[sr@latin]": "VPN na osnovu IPseca (strongSwan)",
        "Name[sr]": "ВПН на основу ИПсека (Стронгсвон)",
        "Name[sv]": "IPsec-baserad VPN (strongswan)",
        "Name[tr]": "IPsec tabanlı VPN (strongswan)",
        "Name[uk]": "VPN на основі IPsec (strongswan)",
        "Name[x-test]": "xxIPsec based VPN (strongswan)xx",
        "Name[zh_CN]": "基于 IPsec 的 VPN (strongswan)",
        "Name[zh_TW]": "以 IPsec 為底的 VPN (strongswan)",
        "Version": "0.1",
        "Website": ""
    },
    "X-NetworkManager-Services": "org.freedesktop.NetworkManager.strongswan"
}
